#,score,hit,steps,cells-vis,prog-size,moves
1,0.98,81,197,154,18,7
2,0.97,83,321,92,14,11
3,0.94,89,105,50,9,5
4,0.91,94,312,53,6,6
5,1,99,131,114,12,10
6,0.89,95,362,85,11,9
7,0.89,99,305,156,12,5
8,0.94,93,163,122,5,11
9,0.83,80,308,125,15,7
10,0.83,99,145,92,5,15
11,0.83,90,348,179,8,4
12,0.98,94,382,197,19,13
13,0.98,80,351,80,5,13
14,0.84,90,347,176,18,6
15,0.83,90,366,161,12,9
16,1,94,132,79,16,9
17,0.98,92,347,90,14,10
18,0.99,88,295,198,12,3
19,0.84,91,257,108,8,9
20,0.8,96,327,104,9,14
21,0.93,90,139,97,5,5
22,0.93,86,399,132,7,7
23,0.83,82,326,107,6,11
24,0.87,88,305,103,9,14
25,0.99,92,212,127,7,8
26,0.98,92,263,50,16,12
27,0.8,80,307,154,13,8
28,0.89,98,312,62,7,15
29,0.91,85,379,91,18,3
30,0.92,85,283,138,13,13
