#,score,hit,steps,cells-vis,prog-size,moves
1,0.09,13,442,394,28,34
2,0.06,5,468,278,26,29
3,0.14,19,469,306,20,24
4,0.06,7,416,308,27,28
5,0.16,17,598,259,22,31
6,0.16,17,505,289,26,20
7,0.15,8,491,361,29,28
8,0.18,15,434,289,21,32
9,0.19,19,457,225,25,29
10,0.2,16,474,221,20,32
11,0.08,6,593,382,25,32
12,0.17,14,569,400,23,26
13,0.17,18,574,369,28,33
14,0.05,6,473,303,23,25
15,0.12,19,409,400,30,26
16,0.17,9,407,351,22,34
17,0.19,6,585,307,26,22
18,0.16,14,466,220,28,34
19,0.09,10,544,304,30,25
20,0.18,6,473,220,29,32
21,0.06,5,491,239,29,32
22,0.08,5,500,335,21,24
23,0.08,12,540,227,25,20
24,0.18,12,485,257,29,24
25,0.15,14,436,238,24,22
26,0.19,12,431,246,29,33
27,0.2,17,460,315,22,24
28,0.16,10,400,366,30,27
29,0.17,11,582,231,29,25
30,0.13,10,476,295,24,26
