#,score,hit,steps,cells-vis,prog-size,moves
1,0.15,16,530,228,29,26
2,0.05,5,573,314,22,32
3,0.06,18,590,343,25,32
4,0.15,20,452,248,25,30
5,0.19,16,408,355,29,31
6,0.07,18,422,301,28,27
7,0.05,11,545,296,29,22
8,0.11,13,487,324,21,28
9,0.05,12,482,338,23,27
10,0.2,8,512,398,20,26
11,0.19,10,544,338,30,23
12,0.05,15,540,201,27,25
13,0.14,11,482,257,26,27
14,0.14,19,575,302,29,21
15,0.15,17,562,246,23,28
16,0.06,20,540,242,30,32
17,0.09,9,409,336,26,28
18,0.05,7,540,215,29,31
19,0.06,10,590,364,21,33
20,0.18,11,428,271,27,27
21,0.16,6,498,244,23,27
22,0.14,14,449,391,23,33
23,0.13,18,456,380,24,26
24,0.14,8,438,353,23,28
25,0.14,12,547,207,28,21
26,0.16,19,417,393,24,34
27,0.05,20,416,237,22,35
28,0.17,5,567,246,20,23
29,0.07,17,444,215,21,22
30,0.14,11,584,228,27,31
